{
  "contexts": {
    "device": { "arch": "arm64", "num_cpu": 10 },
    "os": { "name": "darwin" },
    "runtime": {
      "go_maxprocs": 10,
      "go_numcgocalls": 1,
      "go_numroutines": 2,
      "name": "go",
      "version": "go1.17"
    }
  },
  "event_id": "5c72de3a1ed44b6ea0fd7644b09bd725",
  "level": "error",
  "platform": "go",
  "release": "v0.12.0-18-g409df09-dirty",
  "sdk": {
    "name": "sentry.go",
    "version": "0.13.0",
    "integrations": [
      "ContextifyFrames",
      "Environment",
      "IgnoreErrors",
      "Modules"
    ],
    "packages": [{ "name": "sentry-go", "version": "0.13.0" }]
  },
  "server_name": "Simaos-MacBook-Pro.local",
  "user": {},
  "modules": {
    "github.com/getsentry/sentry-go": "(devel)",
    "golang.org/x/sys": "v0.0.0-20211007075335-d3039528d8ac",
    "golang.org/x/text": "v0.3.7"
  },
  "exception": [
    {
      "type": "*errors.errorString",
      "value": "unsupported protocol scheme \"\""
    },
    {
      "type": "*url.Error",
      "value": "Get \"fake-url\": unsupported protocol scheme \"\"",
      "stacktrace": {
        "frames": [
          {
            "function": "main",
            "module": "main",
            "abs_path": "/Users/sreis/Work/sentry-go/example/basic/main.go",
            "lineno": 54,
            "pre_context": [
              "\t// Set the timeout to the maximum duration the program can afford to wait.",
              "\tdefer sentry.Flush(2 * time.Second)",
              "",
              "\tresp, err := http.Get(os.Args[1])",
              "\tif err != nil {"
            ],
            "context_line": "\t\teventID := sentry.CaptureException(err)",
            "post_context": [
              "\t\tif eventID != nil {",
              "\t\t\tlog.Printf(\"eventID: %s\\n\", *eventID)",
              "\t\t}",
              "\t\tlog.Printf(\"reported to Sentry: %s\", err)",
              "\t\treturn"
            ],
            "in_app": true
          }
        ]
      }
    }
  ],
  "timestamp": "2022-06-01T10:01:49.205099Z"
}
