{"event_id":"29c6de9190294f56af5cec51f8adf212","sent_at":"2022-07-28T10:22:39.395Z","sdk":{"name":"sentry.javascript.node","version":"7.7.0"},"trace":{"transaction":"My First Test Transaction","public_key":"glet_349bf2b711ac478fd6d16d340a5f133e","trace_id":"f858dbe7a3f147af880040f4677f923a","sample_rate":"1"}}
{"type":"transaction","sample_rates":[{"id":"client_rate","rate":1}]}
{"contexts":{"trace":{"op":"test","span_id":"9f17622f30815769","trace_id":"f858dbe7a3f147af880040f4677f923a"},"runtime":{"name":"node","version":"v16.13.2"}},"spans":[],"start_timestamp":1659003759.265604,"tags":{},"timestamp":1659003759.3691943,"transaction":"My First Test Transaction","type":"transaction","transaction_info":{"source":"custom"},"platform":"node","server_name":"Simaos-MacBook-Pro.local","event_id":"29c6de9190294f56af5cec51f8adf212","environment":"production","sdk":{"integrations":["InboundFilters","FunctionToString","ContextLines","Console","Http","OnUncaughtException","OnUnhandledRejection","LinkedErrors"],"name":"sentry.javascript.node","version":"7.7.0","packages":[{"name":"npm:@sentry/node","version":"7.7.0"}]}}
